Mental_Imagery_analysis
…
Explanation and keys of the selected Variables

General Overview of the dataset

d_individual_summary <- m_data  %>% group_by(subject_id) %>%  summarize(mean_RT = mean(RT), timeSpent=mean(timeSpent), writing_foreign = mean(writing_foreign), speaking_foreign= mean(speaking_foreign), listening_foreign = mean(listening_foreign), writing_native = mean(writing_native), speaking_native = mean(speaking_native),listening_native = mean(listening_native),reading_time = mean(reading_time), listening_time= mean(listening_time), speaking_time = mean(speaking_time), learning_time=mean(learning_time), age = mean(age), education = unique(education),gender = unique(gender), exp_language = unique(exp_language), native_language = unique(native_language), foreign_language= unique(foreign_language))

#gender was presented in German and English
#this translates the german version into english
d_individual_summary$gender <- ifelse(d_individual_summary$gender == "mnnlich" & d_individual_summary$gender != "male" & d_individual_summary$gender != "female", "male","female")

d_individual_summary

## # A tibble: 93 x 19
##    subject_id mean_RT timeSpent writing_foreign speaking_foreign
##         <dbl>   <dbl>     <dbl>           <dbl>            <dbl>
##  1        441   4553.      5.40               6                5
##  2        442   6831.      8.00               6                5
##  3        443  24279.     26.8                6                5
##  4        444  12332.     10.9                5                4
##  5        445   7410.      9.47               4                5
##  6        446   6508.      8.32               4                3
##  7        447   6314.     10.6                4                4
##  8        448   7993.      8.61               5                5
##  9        449   6090.      8.91               6                5
## 10        450   5735.      7.32               6                6
## # ... with 83 more rows, and 14 more variables: listening_foreign <dbl>,
## #   writing_native <dbl>, speaking_native <dbl>, listening_native <dbl>,
## #   reading_time <dbl>, listening_time <dbl>, speaking_time <dbl>,
## #   learning_time <dbl>, age <dbl>, education <fct>, gender <chr>,
## #   exp_language <chr>, native_language <fct>, foreign_language <fct>
…
Subjective Language Proficiency

#spread/gather!!!!
#MAKE CODE MORE EASY
language_summary <- (colMeans( m_data[ , c("writing_foreign", "speaking_foreign", "listening_foreign","reading_foreign", "writing_native", "listening_native","speaking_native","reading_native")],na.rm = TRUE)) %>% as.matrix()
colnames(language_summary) <- c("rating")
m_data

## # A tibble: 3,255 x 27
##    trial_name id    type  response    RT native_language foreign_language
##    <fct>      <fct> <fct> <ord>    <dbl> <fct>           <fct>           
##  1 ratingSca~ 14    audi~ 5        10405 German          English         
##  2 ratingSca~ 16    audi~ 7         3085 German          English         
##  3 ratingSca~ 9     visu~ 7        19556 German          English         
##  4 ratingSca~ 38    orga~ 5         7477 German          English         
##  5 ratingSca~ 34    olfa~ 4         6914 German          English         
##  6 ratingSca~ 27    gust~ 5         4821 German          English         
##  7 ratingSca~ 28    gust~ 6         3124 German          English         
##  8 ratingSca~ 7     visu~ 2        10863 German          English         
##  9 ratingSca~ 29    gust~ 3         6759 German          English         
## 10 ratingSca~ 8     visu~ 2         9968 German          English         
## # ... with 3,245 more rows, and 20 more variables:
## #   foreign_dominance <fct>, speaking_native <dbl>,
## #   listening_native <dbl>, writing_native <dbl>, reading_native <dbl>,
## #   speaking_foreign <dbl>, listening_foreign <dbl>,
## #   writing_foreign <dbl>, reading_foreign <dbl>, reading_time <dbl>,
## #   listening_time <dbl>, speaking_time <dbl>, learning_time <dbl>,
## #   age <dbl>, education <fct>, gender <fct>, timeSpent <dbl>,
## #   exp_language <chr>, subject_id <dbl>, language_eq <lgl>
…
post_samples

## # A tibble: 4,000 x 95
##    `b_Intercept[1]` `b_Intercept[2]` `b_Intercept[3]` `b_Intercept[4]`
##               <dbl>            <dbl>            <dbl>            <dbl>
##  1            -4.38            -3.35            -2.59            -1.87
##  2            -4.79            -3.45            -2.59            -1.79
##  3            -4.88            -3.50            -2.63            -1.82
##  4            -4.57            -3.38            -2.54            -1.80
##  5            -4.54            -3.36            -2.62            -1.81
##  6            -4.81            -3.60            -2.82            -2.01
##  7            -4.72            -3.49            -2.51            -1.66
##  8            -4.54            -3.36            -2.58            -1.84
##  9            -4.75            -3.52            -2.69            -1.91
## 10            -5.05            -3.93            -3.04            -2.28
## # ... with 3,990 more rows, and 91 more variables: `b_Intercept[5]` <dbl>,
## #   `b_Intercept[6]` <dbl>, b_typegustatory <dbl>, b_typemotor <dbl>,
## #   b_typeolfactory <dbl>, b_typeorganic <dbl>, b_typetactile <dbl>,
## #   b_typevisual <dbl>, b_language_eqTRUE <dbl>,
## #   `b_typegustatory:language_eqTRUE` <dbl>,
## #   `b_typemotor:language_eqTRUE` <dbl>,
## #   `b_typeolfactory:language_eqTRUE` <dbl>,
## #   `b_typeorganic:language_eqTRUE` <dbl>,
## #   `b_typetactile:language_eqTRUE` <dbl>,
…
